{
  "newsTemplate": "<div class='newsletter'><div class='container'>  <div class='col-md-6 w3agile_newsletter_left'>  <h3>{{content.title}}</h3><p>{{content.data}}</p>  </div><div class='col-md-6 w3agile_newsletter_right'><form action='#' method='post'><input type='email' name='Email' placeholder='Email' required=''><input type='submit' value='' /></form></div><div class='clearfix'> </div></div></div>",
  "footerTemplate":  "<div class='footer'><div class='container'><div class='w3_footer_grids'><div class='col-md-3 w3_footer_grid'><h3>{{content.contact.title}}</h3><p>{{content.contact.data1}}</p><ul class='address'><li><i class='glyphicon glyphicon-map-marker' aria-hidden='true'></i>{{content.contact.data2}}<span>{{content.contact.data3}}</span></li><li><i class='glyphicon glyphicon-envelope' aria-hidden='true'></i><a href='mailto:{{content.contact.data4}}'>{{content.contact.data4}}</a></li><li><i class='glyphicon glyphicon-earphone' aria-hidden='true'></i>{{content.contact.data5}}</li></ul></div><div class='col-md-3 w3_footer_grid'><h3>{{content.information.title}}</h3> <ul class='info'> <li><a href='about.html'>{{content.information.data1}}</a></li> <li><a href='mail.html'>{{content.information.data2}}</a></li> <li><a href='codes.html'>{{content.information.data3}}</a></li> <li><a href='faq.html'>{{content.information.data4}}</a></li> <li><a href='products.html'>{{content.information.data5}}</a></li> </ul> </div><div class='col-md-3 w3_footer_grid'><h3>{{content.category.title}}</h3> <ul class='info'> <li><a href='products.html'>{{content.category.data1}}</a></li> <li><a href='products1.html'>{{content.category.data2}}</a></li> <li><a href='products.html'>{{content.category.data3}}</a></li> <li><a href='products1.html'>{{content.category.data4}}</a></li> <li><a href='products2.html'>{{content.category.data5}}</a></li> </ul></div> <div class='col-md-3 w3_footer_grid'><h3>{{content.profile.title}}</h3> <ul class='info'> <li><a href='index.html'>{{content.profile.data1}}</a></li> <li><a href='products.html'>{{content.profile.data2}}</a></li> </ul> <h4>{{content.profile.data3}}</h4> <div class='agileits_social_button'> <ul> <li><a href='#' class='facebook'> </a></li> <li><a href='#' class='twitter'> </a></li><li><a href='#' class='google'> </a></li> <li><a href='#' class='pinterest'> </a></li> </ul> </div> </div><div class='clearfix'> </div></div></div><div class='footer-copy'><div class='footer-copy1'><div class='footer-copy-pos'><a href='#home1' class='scroll'><img src='images/arrow.png' alt=' ' class='img-responsive' /></a></div></div><div class='container'><p>&copy; {{content.copyrights.data1}} <a href='http://w3layouts.com/'>{{content.copyrights.data2}}</a></p> </div> </div> </div>",
  "navigationTemplate": "<div class='navigation'><div class='container'><nav class='navbar navbar-default'><!-- Brand and toggle get grouped for better mobile display --><div class='navbar-header nav_2'><button type='button' class='navbar-toggle collapsed navbar-toggle1' data-toggle='collapse' data-target='#bs-megadropdown-tabs'><span class='sr-only'>Toggle navigation</span><span class='icon-bar'></span><span class='icon-bar'></span><span class='icon-bar'></span></button></div><div class='collapse navbar-collapse' id='bs-megadropdown-tabs'><ul class='nav navbar-nav'><li><a ui-sref='home' class='act'>{{content.home.data}}</a></li> <!-- Mega Menu --> <li class='dropdown'> <a href='#' class='dropdown-toggle' data-toggle='dropdown'>{{content.products.title}} <b class='caret'></b></a> <ul class='dropdown-menu multi-column columns-3'> <div class='row'> <div class='col-sm-3'> <ul class='multi-column-dropdown'> <h6>{{content.products.mobiles.title}}</h6> <li><a ui-sref='products'>{{content.products.mobiles.data1}}</a></li> <li><a ui-sref='products'>{{content.products.mobiles.data2}}<span>New</span></a></li> <li><a ui-sref='products'>{{content.products.mobiles.data3}}</a></li> <li><a ui-sref='products'>{{content.products.mobiles.data4}}<span>New</span></a></li> </ul> </div> <div class='col-sm-3'> <ul class='multi-column-dropdown'> <h6>{{content.products.accessories.title}}</h6> <li><a ui-sref='products1'>{{content.products.accessories.data1}}</a></li> <li><a ui-sref='products1'>{{content.products.accessories.data2}}</a></li> <li><a ui-sref='products1'>{{content.products.accessories.data3}}<span>New</span></a></li> <li><a ui-sref='products1'><i>{{content.products.accessories.data4}}</i></a></li> </ul> </div> <div class='col-sm-2'> <ul class='multi-column-dropdown'><h6>{{content.products.home.title}}</h6> <li><a ui-sref='products2'>{{content.products.home.data1}}</a></li> <li><a ui-sref='products2'>{{content.products.home.data2}}</a></li> <li><a ui-sref='products2'>{{content.products.home.data3}}</a></li> <li><a ui-sref='products2'>{{content.products.home.data4}}</a></li> </ul> </div><div class='col-sm-4'><div class='w3ls_products_pos'> <h4>30%<i>Off/-</i></h4> <img src='images/1.jpg' alt=' ' class='img-responsive' /> </div> </div> <div class='clearfix'></div> </div> </ul> </li> <li><a ui-sref='about'>{{content.aboutus.title}}</a></li> <li class='w3pages'><a href='#' class='dropdown-toggle' data-toggle='dropdown' role='button' aria-haspopup='true' aria-expanded='false'>{{content.pages.title}} <span class='caret'></span></a> <ul class='dropdown-menu'> <li><a ui-sref='icons'>{{content.pages.data1}}</a></li> <li><a ui-sref='codes'>{{content.pages.data2}}</a></li> </ul> </li><li><a ui-sref='mail'>{{content.mailus.title}}</a></li> </ul> </div> </nav> </div> </div>"
}